{
	"jobId": "5155",
	"systemId": "58278",
	"newStatus": "8770",
	"oldStatus": "17665",
	"customerId": "2569",
	"personId": "45392",
	"links": [{
			"rel": "applicantWorkflow",
			"title": "Applicant Workflow",
			"url": "https://api.icims.com/customers/2569/applicantworkflows/3553"
		}, {
			"rel": "job",
			"title": "Job Profile",
			"url": "http://localhost/hrnx/git_only/stub/icims1/mockEmptyResponse.event"
		}, {
			"rel": "person",
			"title": "Person Profile",
			"url": "http://localhost/hrnx/git_only/stub/icims1/mockConfirmationForPersonProfileBackground.event"
		}, {
			"rel": "user",
			"title": "Posting User",
			"url": "https://api.icims.com/customers/2569/people/100"
		}
	],
	"eventType": "WorkFlowStatusChangeEvent",
	"userId": "921611"
}
